# LA Code lookup is correct

    Code
      get_la_code_opendata_lookup()
    Output
      # A tibble: 36 x 3
         CA        CAName                sending_local_authority_name
         <chr>     <chr>                 <chr>                       
       1 S12000005 Clackmannanshire      Clackmannanshire            
       2 S12000006 Dumfries and Galloway Dumfries & Galloway         
       3 S12000008 East Ayrshire         East Ayrshire               
       4 S12000010 East Lothian          East Lothian                
       5 S12000011 East Renfrewshire     East Renfrewshire           
       6 S12000013 Na h-Eileanan Siar    Eilean Siar                 
       7 S12000014 Falkirk               Falkirk                     
       8 S12000015 Fife                  Fife                        
       9 S12000017 Highland              Highland                    
      10 S12000018 Inverclyde            Inverclyde                  
      # i 26 more rows
